Query the 'IGVF' 'ArangoDB' — db_edges • rigvf
…
    Value

    edges() and nodes() return a tibble with the edge or
node name and count of occurrences in the database.

db_gene_variants() returns a tibble summarizing variants
associated with the gene.

    Examples

db_edges()
#> # A tibble: 36 × 2
#>    name                                            count
#>    <chr>                                           <dbl>
#>  1 variants_variants                          5979387121
#>  2 coding_variants_proteins                    239108968
#>  3 variants_coding_variants                    239108968
#>  4 variants_genes_terms                         95728528
#>  5 variants_genes                               95728528
#>  6 regulatory_regions_genes                     30197460
#>  7 regulatory_regions_genes_biosamples_donors   21075288
#>  8 regulatory_regions_genes_biosamples          19703741
#>  9 genes_genes                                   3553549
#> 10 variants_proteins                             2927144
#> # ℹ 26 more rows
…
db_gene_variants("ENSG00000106633", 0.85)
#> # A tibble: 40 × 9
#>    `_key`              `_id` `_from` `_to` `_rev` `score:long` source source_url
#>    <chr>               <chr> <chr>   <chr> <chr>         <dbl> <chr>  <chr>     
#>  1 genic_chr7_4415452… regu… regula… gene… _g5CU…        0.989 ENCOD… https://w…
#>  2 promoter_chr7_4415… regu… regula… gene… _g5CU…        0.869 ENCOD… https://w…
#>  3 genic_chr7_4414584… regu… regula… gene… _g5CU…        0.948 ENCOD… https://w…
#>  4 promoter_chr7_4415… regu… regula… gene… _g5CU…        1.00  ENCOD… https://w…
#>  5 promoter_chr7_4415… regu… regula… gene… _g5CU…        1.00  ENCOD… https://w…
#>  6 intergenic_chr7_44… regu… regula… gene… _g5CU…        0.959 ENCOD… https://w…
#>  7 genic_chr7_4415544… regu… regula… gene… _g5CV…        0.942 ENCOD… https://w…
#>  8 promoter_chr7_4415… regu… regula… gene… _g5CV…        0.929 ENCOD… https://w…
#>  9 intergenic_chr7_44… regu… regula… gene… _g5CV…        0.936 ENCOD… https://w…
#> 10 promoter_chr7_4415… regu… regula… gene… _g5CW…        0.966 ENCOD… https://w…
#> # ℹ 30 more rows
#> # ℹ 1 more variable: biological_context <chr>
…
